{
  "project_info": {
    "project_number": "933898109767",
    "project_id": "digital-alumni-ilmci",
    "storage_bucket": "digital-alumni-ilmci.appspot.com"
  },
  "client": [
    {
      "client_info": {
        "mobilesdk_app_id": "1:933898109767:android:25e25ad62aa20fed7fc262",
        "android_client_info": {
          "package_name": "com.ilmci.dac.android.development"
        }
      },
      "oauth_client": [
        {
          "client_id": "933898109767-gulo2ri48sog4hrgho7j5j4kbv3cd141.apps.googleusercontent.com",
          "client_type": 1,
          "android_info": {
            "package_name": "com.ilmci.dac.android.development",
            "certificate_hash": "c5f4cd53b837a826db4c4245e3bc6419b0415987"
          }
        },
        {
          "client_id": "933898109767-rof76i16ckjmvfqci3hvv24ci6kom59k.apps.googleusercontent.com",
          "client_type": 1,
          "android_info": {
            "package_name": "com.ilmci.dac.android.development",
            "certificate_hash": "44f756a7254766f419565834278984ed799afa38"
          }
        },
        {
          "client_id": "933898109767-t3gmeasht0940bi6e19m0kjdid709df7.apps.googleusercontent.com",
          "client_type": 3
        }
      ],
      "api_key": [
        {
          "current_key": "AIzaSyDjQix8zzIGURGYBx39r2npF1R_ZWdpNbE"
        }
      ],
      "services": {
        "appinvite_service": {
          "other_platform_oauth_client": [
            {
              "client_id": "933898109767-t3gmeasht0940bi6e19m0kjdid709df7.apps.googleusercontent.com",
              "client_type": 3
            }
          ]
        }
      }
    }
  ],
  "configuration_version": "1"
}